set title 'Обучение радиальной нейронной сети' font 'Arial,14'
set view 50,60
set grid xtics ytics ztics mxtics mytics
set xrange [-5:5]
set xlabel 'x1'
set yrange [-5:5]
set ylabel 'x2'
set zlabel 'f(x)'
set isosamples 100,100
splot 'results/trainingIter0.dat' u 1:2:3 ps 2 pt 2 title 'f(x) approximation 1/75', [-5:5][-5:5] sin(x)+cos(y) title 'f(x) = sin(x1) + cos(x2)  '
splot 'results/trainingIter1.dat' u 1:2:3 ps 2 pt 2 title 'f(x) approximation 2/75', [-5:5][-5:5] sin(x)+cos(y) title 'f(x) = sin(x1) + cos(x2)  '
splot 'results/trainingIter2.dat' u 1:2:3 ps 2 pt 2 title 'f(x) approximation 3/75', [-5:5][-5:5] sin(x)+cos(y) title 'f(x) = sin(x1) + cos(x2)  '
splot 'results/trainingIter3.dat' u 1:2:3 ps 2 pt 2 title 'f(x) approximation 4/75', [-5:5][-5:5] sin(x)+cos(y) title 'f(x) = sin(x1) + cos(x2)  '
splot 'results/trainingIter4.dat' u 1:2:3 ps 2 pt 2 title 'f(x) approximation 5/75', [-5:5][-5:5] sin(x)+cos(y) title 'f(x) = sin(x1) + cos(x2)  '
splot 'results/trainingIter5.dat' u 1:2:3 ps 2 pt 2 title 'f(x) approximation 6/75', [-5:5][-5:5] sin(x)+cos(y) title 'f(x) = sin(x1) + cos(x2)  '
splot 'results/trainingIter6.dat' u 1:2:3 ps 2 pt 2 title 'f(x) approximation 7/75', [-5:5][-5:5] sin(x)+cos(y) title 'f(x) = sin(x1) + cos(x2)  '
splot 'results/trainingIter7.dat' u 1:2:3 ps 2 pt 2 title 'f(x) approximation 8/75', [-5:5][-5:5] sin(x)+cos(y) title 'f(x) = sin(x1) + cos(x2)  '
splot 'results/trainingIter8.dat' u 1:2:3 ps 2 pt 2 title 'f(x) approximation 9/75', [-5:5][-5:5] sin(x)+cos(y) title 'f(x) = sin(x1) + cos(x2)  '
splot 'results/trainingIter9.dat' u 1:2:3 ps 2 pt 2 title 'f(x) approximation 10/75', [-5:5][-5:5] sin(x)+cos(y) title 'f(x) = sin(x1) + cos(x2)  '
splot 'results/trainingIter10.dat' u 1:2:3 ps 2 pt 2 title 'f(x) approximation 11/75', [-5:5][-5:5] sin(x)+cos(y) title 'f(x) = sin(x1) + cos(x2)  '
splot 'results/trainingIter11.dat' u 1:2:3 ps 2 pt 2 title 'f(x) approximation 12/75', [-5:5][-5:5] sin(x)+cos(y) title 'f(x) = sin(x1) + cos(x2)  '
splot 'results/trainingIter12.dat' u 1:2:3 ps 2 pt 2 title 'f(x) approximation 13/75', [-5:5][-5:5] sin(x)+cos(y) title 'f(x) = sin(x1) + cos(x2)  '
splot 'results/trainingIter13.dat' u 1:2:3 ps 2 pt 2 title 'f(x) approximation 14/75', [-5:5][-5:5] sin(x)+cos(y) title 'f(x) = sin(x1) + cos(x2)  '
splot 'results/trainingIter14.dat' u 1:2:3 ps 2 pt 2 title 'f(x) approximation 15/75', [-5:5][-5:5] sin(x)+cos(y) title 'f(x) = sin(x1) + cos(x2)  '
splot 'results/trainingIter15.dat' u 1:2:3 ps 2 pt 2 title 'f(x) approximation 16/75', [-5:5][-5:5] sin(x)+cos(y) title 'f(x) = sin(x1) + cos(x2)  '
splot 'results/trainingIter16.dat' u 1:2:3 ps 2 pt 2 title 'f(x) approximation 17/75', [-5:5][-5:5] sin(x)+cos(y) title 'f(x) = sin(x1) + cos(x2)  '
splot 'results/trainingIter17.dat' u 1:2:3 ps 2 pt 2 title 'f(x) approximation 18/75', [-5:5][-5:5] sin(x)+cos(y) title 'f(x) = sin(x1) + cos(x2)  '
splot 'results/trainingIter18.dat' u 1:2:3 ps 2 pt 2 title 'f(x) approximation 19/75', [-5:5][-5:5] sin(x)+cos(y) title 'f(x) = sin(x1) + cos(x2)  '
splot 'results/trainingIter19.dat' u 1:2:3 ps 2 pt 2 title 'f(x) approximation 20/75', [-5:5][-5:5] sin(x)+cos(y) title 'f(x) = sin(x1) + cos(x2)  '
splot 'results/trainingIter20.dat' u 1:2:3 ps 2 pt 2 title 'f(x) approximation 21/75', [-5:5][-5:5] sin(x)+cos(y) title 'f(x) = sin(x1) + cos(x2)  '
splot 'results/trainingIter21.dat' u 1:2:3 ps 2 pt 2 title 'f(x) approximation 22/75', [-5:5][-5:5] sin(x)+cos(y) title 'f(x) = sin(x1) + cos(x2)  '
splot 'results/trainingIter22.dat' u 1:2:3 ps 2 pt 2 title 'f(x) approximation 23/75', [-5:5][-5:5] sin(x)+cos(y) title 'f(x) = sin(x1) + cos(x2)  '
splot 'results/trainingIter23.dat' u 1:2:3 ps 2 pt 2 title 'f(x) approximation 24/75', [-5:5][-5:5] sin(x)+cos(y) title 'f(x) = sin(x1) + cos(x2)  '
splot 'results/trainingIter24.dat' u 1:2:3 ps 2 pt 2 title 'f(x) approximation 25/75', [-5:5][-5:5] sin(x)+cos(y) title 'f(x) = sin(x1) + cos(x2)  '
splot 'results/trainingIter25.dat' u 1:2:3 ps 2 pt 2 title 'f(x) approximation 26/75', [-5:5][-5:5] sin(x)+cos(y) title 'f(x) = sin(x1) + cos(x2)  '
splot 'results/trainingIter26.dat' u 1:2:3 ps 2 pt 2 title 'f(x) approximation 27/75', [-5:5][-5:5] sin(x)+cos(y) title 'f(x) = sin(x1) + cos(x2)  '
splot 'results/trainingIter27.dat' u 1:2:3 ps 2 pt 2 title 'f(x) approximation 28/75', [-5:5][-5:5] sin(x)+cos(y) title 'f(x) = sin(x1) + cos(x2)  '
splot 'results/trainingIter28.dat' u 1:2:3 ps 2 pt 2 title 'f(x) approximation 29/75', [-5:5][-5:5] sin(x)+cos(y) title 'f(x) = sin(x1) + cos(x2)  '
splot 'results/trainingIter29.dat' u 1:2:3 ps 2 pt 2 title 'f(x) approximation 30/75', [-5:5][-5:5] sin(x)+cos(y) title 'f(x) = sin(x1) + cos(x2)  '
splot 'results/trainingIter30.dat' u 1:2:3 ps 2 pt 2 title 'f(x) approximation 31/75', [-5:5][-5:5] sin(x)+cos(y) title 'f(x) = sin(x1) + cos(x2)  '
splot 'results/trainingIter31.dat' u 1:2:3 ps 2 pt 2 title 'f(x) approximation 32/75', [-5:5][-5:5] sin(x)+cos(y) title 'f(x) = sin(x1) + cos(x2)  '
splot 'results/trainingIter32.dat' u 1:2:3 ps 2 pt 2 title 'f(x) approximation 33/75', [-5:5][-5:5] sin(x)+cos(y) title 'f(x) = sin(x1) + cos(x2)  '
splot 'results/trainingIter33.dat' u 1:2:3 ps 2 pt 2 title 'f(x) approximation 34/75', [-5:5][-5:5] sin(x)+cos(y) title 'f(x) = sin(x1) + cos(x2)  '
splot 'results/trainingIter34.dat' u 1:2:3 ps 2 pt 2 title 'f(x) approximation 35/75', [-5:5][-5:5] sin(x)+cos(y) title 'f(x) = sin(x1) + cos(x2)  '
splot 'results/trainingIter35.dat' u 1:2:3 ps 2 pt 2 title 'f(x) approximation 36/75', [-5:5][-5:5] sin(x)+cos(y) title 'f(x) = sin(x1) + cos(x2)  '
splot 'results/trainingIter36.dat' u 1:2:3 ps 2 pt 2 title 'f(x) approximation 37/75', [-5:5][-5:5] sin(x)+cos(y) title 'f(x) = sin(x1) + cos(x2)  '
splot 'results/trainingIter37.dat' u 1:2:3 ps 2 pt 2 title 'f(x) approximation 38/75', [-5:5][-5:5] sin(x)+cos(y) title 'f(x) = sin(x1) + cos(x2)  '
splot 'results/trainingIter38.dat' u 1:2:3 ps 2 pt 2 title 'f(x) approximation 39/75', [-5:5][-5:5] sin(x)+cos(y) title 'f(x) = sin(x1) + cos(x2)  '
splot 'results/trainingIter39.dat' u 1:2:3 ps 2 pt 2 title 'f(x) approximation 40/75', [-5:5][-5:5] sin(x)+cos(y) title 'f(x) = sin(x1) + cos(x2)  '
splot 'results/trainingIter40.dat' u 1:2:3 ps 2 pt 2 title 'f(x) approximation 41/75', [-5:5][-5:5] sin(x)+cos(y) title 'f(x) = sin(x1) + cos(x2)  '
splot 'results/trainingIter41.dat' u 1:2:3 ps 2 pt 2 title 'f(x) approximation 42/75', [-5:5][-5:5] sin(x)+cos(y) title 'f(x) = sin(x1) + cos(x2)  '
splot 'results/trainingIter42.dat' u 1:2:3 ps 2 pt 2 title 'f(x) approximation 43/75', [-5:5][-5:5] sin(x)+cos(y) title 'f(x) = sin(x1) + cos(x2)  '
splot 'results/trainingIter43.dat' u 1:2:3 ps 2 pt 2 title 'f(x) approximation 44/75', [-5:5][-5:5] sin(x)+cos(y) title 'f(x) = sin(x1) + cos(x2)  '
splot 'results/trainingIter44.dat' u 1:2:3 ps 2 pt 2 title 'f(x) approximation 45/75', [-5:5][-5:5] sin(x)+cos(y) title 'f(x) = sin(x1) + cos(x2)  '
splot 'results/trainingIter45.dat' u 1:2:3 ps 2 pt 2 title 'f(x) approximation 46/75', [-5:5][-5:5] sin(x)+cos(y) title 'f(x) = sin(x1) + cos(x2)  '
splot 'results/trainingIter46.dat' u 1:2:3 ps 2 pt 2 title 'f(x) approximation 47/75', [-5:5][-5:5] sin(x)+cos(y) title 'f(x) = sin(x1) + cos(x2)  '
splot 'results/trainingIter47.dat' u 1:2:3 ps 2 pt 2 title 'f(x) approximation 48/75', [-5:5][-5:5] sin(x)+cos(y) title 'f(x) = sin(x1) + cos(x2)  '
splot 'results/trainingIter48.dat' u 1:2:3 ps 2 pt 2 title 'f(x) approximation 49/75', [-5:5][-5:5] sin(x)+cos(y) title 'f(x) = sin(x1) + cos(x2)  '
splot 'results/trainingIter49.dat' u 1:2:3 ps 2 pt 2 title 'f(x) approximation 50/75', [-5:5][-5:5] sin(x)+cos(y) title 'f(x) = sin(x1) + cos(x2)  '
splot 'results/trainingIter50.dat' u 1:2:3 ps 2 pt 2 title 'f(x) approximation 51/75', [-5:5][-5:5] sin(x)+cos(y) title 'f(x) = sin(x1) + cos(x2)  '
splot 'results/trainingIter51.dat' u 1:2:3 ps 2 pt 2 title 'f(x) approximation 52/75', [-5:5][-5:5] sin(x)+cos(y) title 'f(x) = sin(x1) + cos(x2)  '
splot 'results/trainingIter52.dat' u 1:2:3 ps 2 pt 2 title 'f(x) approximation 53/75', [-5:5][-5:5] sin(x)+cos(y) title 'f(x) = sin(x1) + cos(x2)  '
splot 'results/trainingIter53.dat' u 1:2:3 ps 2 pt 2 title 'f(x) approximation 54/75', [-5:5][-5:5] sin(x)+cos(y) title 'f(x) = sin(x1) + cos(x2)  '
splot 'results/trainingIter54.dat' u 1:2:3 ps 2 pt 2 title 'f(x) approximation 55/75', [-5:5][-5:5] sin(x)+cos(y) title 'f(x) = sin(x1) + cos(x2)  '
splot 'results/trainingIter55.dat' u 1:2:3 ps 2 pt 2 title 'f(x) approximation 56/75', [-5:5][-5:5] sin(x)+cos(y) title 'f(x) = sin(x1) + cos(x2)  '
splot 'results/trainingIter56.dat' u 1:2:3 ps 2 pt 2 title 'f(x) approximation 57/75', [-5:5][-5:5] sin(x)+cos(y) title 'f(x) = sin(x1) + cos(x2)  '
splot 'results/trainingIter57.dat' u 1:2:3 ps 2 pt 2 title 'f(x) approximation 58/75', [-5:5][-5:5] sin(x)+cos(y) title 'f(x) = sin(x1) + cos(x2)  '
splot 'results/trainingIter58.dat' u 1:2:3 ps 2 pt 2 title 'f(x) approximation 59/75', [-5:5][-5:5] sin(x)+cos(y) title 'f(x) = sin(x1) + cos(x2)  '
splot 'results/trainingIter59.dat' u 1:2:3 ps 2 pt 2 title 'f(x) approximation 60/75', [-5:5][-5:5] sin(x)+cos(y) title 'f(x) = sin(x1) + cos(x2)  '
splot 'results/trainingIter60.dat' u 1:2:3 ps 2 pt 2 title 'f(x) approximation 61/75', [-5:5][-5:5] sin(x)+cos(y) title 'f(x) = sin(x1) + cos(x2)  '
splot 'results/trainingIter61.dat' u 1:2:3 ps 2 pt 2 title 'f(x) approximation 62/75', [-5:5][-5:5] sin(x)+cos(y) title 'f(x) = sin(x1) + cos(x2)  '
splot 'results/trainingIter62.dat' u 1:2:3 ps 2 pt 2 title 'f(x) approximation 63/75', [-5:5][-5:5] sin(x)+cos(y) title 'f(x) = sin(x1) + cos(x2)  '
splot 'results/trainingIter63.dat' u 1:2:3 ps 2 pt 2 title 'f(x) approximation 64/75', [-5:5][-5:5] sin(x)+cos(y) title 'f(x) = sin(x1) + cos(x2)  '
splot 'results/trainingIter64.dat' u 1:2:3 ps 2 pt 2 title 'f(x) approximation 65/75', [-5:5][-5:5] sin(x)+cos(y) title 'f(x) = sin(x1) + cos(x2)  '
splot 'results/trainingIter65.dat' u 1:2:3 ps 2 pt 2 title 'f(x) approximation 66/75', [-5:5][-5:5] sin(x)+cos(y) title 'f(x) = sin(x1) + cos(x2)  '
splot 'results/trainingIter66.dat' u 1:2:3 ps 2 pt 2 title 'f(x) approximation 67/75', [-5:5][-5:5] sin(x)+cos(y) title 'f(x) = sin(x1) + cos(x2)  '
splot 'results/trainingIter67.dat' u 1:2:3 ps 2 pt 2 title 'f(x) approximation 68/75', [-5:5][-5:5] sin(x)+cos(y) title 'f(x) = sin(x1) + cos(x2)  '
splot 'results/trainingIter68.dat' u 1:2:3 ps 2 pt 2 title 'f(x) approximation 69/75', [-5:5][-5:5] sin(x)+cos(y) title 'f(x) = sin(x1) + cos(x2)  '
splot 'results/trainingIter69.dat' u 1:2:3 ps 2 pt 2 title 'f(x) approximation 70/75', [-5:5][-5:5] sin(x)+cos(y) title 'f(x) = sin(x1) + cos(x2)  '
splot 'results/trainingIter70.dat' u 1:2:3 ps 2 pt 2 title 'f(x) approximation 71/75', [-5:5][-5:5] sin(x)+cos(y) title 'f(x) = sin(x1) + cos(x2)  '
splot 'results/trainingIter71.dat' u 1:2:3 ps 2 pt 2 title 'f(x) approximation 72/75', [-5:5][-5:5] sin(x)+cos(y) title 'f(x) = sin(x1) + cos(x2)  '
splot 'results/trainingIter72.dat' u 1:2:3 ps 2 pt 2 title 'f(x) approximation 73/75', [-5:5][-5:5] sin(x)+cos(y) title 'f(x) = sin(x1) + cos(x2)  '
splot 'results/trainingIter73.dat' u 1:2:3 ps 2 pt 2 title 'f(x) approximation 74/75', [-5:5][-5:5] sin(x)+cos(y) title 'f(x) = sin(x1) + cos(x2)  '
splot 'results/trainingIter74.dat' u 1:2:3 ps 2 pt 2 title 'f(x) approximation 75/75', [-5:5][-5:5] sin(x)+cos(y) title 'f(x) = sin(x1) + cos(x2)  '
